sequencer.vcd
$comment Generated by nMigen $end
$date 2019-09-16 20:38:05.191191 $end
$timescale 100 ps $end
$scope module top $end
$var wire 1 0 extend $end
$var wire 1 1 sequencer_pos_rst $end
$var wire 1 2 sequencer_pos_clk $end
$var wire 1 3 mcycler_buswait $end
$var wire 8 4 mcycler_Din $end
$var wire 8 5 mcycler_wdata $end
$var wire 1 6 mcycler_neg_rst $end
$var wire 1 7 mcycler_neg_clk $end
$var wire 16 8 mcycler_addr $end
$var wire 16 9 mcycler_refresh_addr $end
$var string 1 a mcycler_cycle $end
$var wire 1 b mcycler_extend $end
$var wire 1 c mcycler_busreq $end
$var wire 16 d incdec_input $end
$var string 1 e incdec_setting $end
$var wire 1 f sequencer_act $end
$var wire 8 10 sequencer_dataBusIn $end
$var wire 1 11 registers_useIX $end
$var wire 1 12 registers_useIY $end
$var wire 1 13 registers_registerSet $end
$var string 1 14 registers_readRegister8 $end
$var string 1 15 registers_readRegister16 $end
$var string 1 16 registers_writeRegister8 $end
$var string 1 17 registers_writeRegister16 $end
$var wire 16 18 registers_input16 $end
$var wire 8 19 registers_input8 $end
$var wire 16 1a addrBus $end
$var wire 8 1b dataBus $end
$scope module incdec $end
$var wire 16 88 input $end
$var string 1 89 setting $end
$var wire 16 8a output $end
$upscope $end
$scope module mcycler $end
$var wire 16 5b addr $end
$var wire 16 5c refresh_addr $end
$var string 1 5d cycle $end
$var wire 1 5e extend $end
$var wire 1 5f busreq $end
$var wire 1 60 act $end
$var wire 1 61 rd $end
$var wire 1 62 edgelord_pos_rst $end
$var wire 1 63 edgelord_pos_clk $end
$var wire 1 64 buswait $end
$var wire 8 65 Din $end
$var wire 8 66 wdata $end
$var wire 1 67 edgelord_neg_rst $end
$var wire 1 68 edgelord_neg_clk $end
$var wire 1 69 waitstated $end
$var wire 8 6a neg_latched_Din $end
$var wire 1 6b busrequested $end
$var wire 16 6c latched_addr $end
$var wire 16 6d latched_refresh_addr $end
$var wire 8 6e latched_wdata $end
$var wire 4 6f tcycles $end
$var string 1 70 fsm_state $end
$var wire 8 71 latched_rdata $end
$var wire 1 72 mcycle_done $end
$var wire 4 73 tcycle $end
$var wire 1 74 ddir $end
$var wire 1 75 hiz $end
$var wire 16 76 A $end
$var wire 8 77 Dout $end
$var wire 1 78 mreq $end
$var wire 1 79 iorq $end
$var wire 1 7a m1 $end
$var wire 1 7b wr $end
$var wire 1 7c rfsh $end
$var wire 1 7d busack $end
$var wire 8 7e rdata $end
$var string 1 7f mcycle $end
$var string 1 80 cycle_to_start $end
$scope module edgelord $end
$var wire 1 81 pos_rst $end
$var wire 1 82 pos_clk $end
$var wire 1 83 clk_state $end
$var wire 1 84 neg_rst $end
$var wire 1 85 neg_clk $end
$var wire 1 86 pos $end
$var wire 1 87 neg $end
$upscope $end
$upscope $end
$scope module registers $end
$var wire 1 35 useIX $end
$var wire 1 36 useIY $end
$var wire 1 37 registerSet $end
$var string 1 38 readRegister8 $end
$var string 1 39 readRegister16 $end
$var string 1 3a writeRegister8 $end
$var string 1 3b writeRegister16 $end
$var wire 16 3c input16 $end
$var wire 8 3d input8 $end
$var wire 16 3e output16 $end
$var wire 8 3f output8 $end
$var wire 1 40 pos_rst $end
$var wire 1 41 pos_clk $end
$var wire 1 42 conflict $end
$var wire 8 43 W1 $end
$var wire 8 44 W2 $end
$var wire 8 45 Z1 $end
$var wire 8 46 Z2 $end
$var wire 8 47 B1 $end
$var wire 8 48 B2 $end
$var wire 8 49 C1 $end
$var wire 8 4a C2 $end
$var wire 8 4b E1 $end
$var wire 8 4c E2 $end
$var wire 8 4d H1 $end
$var wire 8 4e H2 $end
$var wire 8 4f L1 $end
$var wire 8 50 L2 $end
$var wire 8 51 D1 $end
$var wire 8 52 D2 $end
$var wire 8 53 IXl $end
$var wire 8 54 IXh $end
$var wire 8 55 IYl $end
$var wire 8 56 IYh $end
$var wire 8 57 SPl $end
$var wire 8 58 SPh $end
$var wire 8 59 PCl $end
$var wire 8 5a PCh $end
$upscope $end
$scope module sequencer $end
$var string 1 1c cycle $end
$var string 1 1d addrIncDecSetting $end
$var wire 1 1e act $end
$var wire 8 1f dataBusIn $end
$var wire 1 20 useIX $end
$var wire 1 21 useIY $end
$var wire 1 22 registerSet $end
$var string 1 23 register8Source $end
$var string 1 24 register16Source $end
$var string 1 25 register8Dest $end
$var string 1 26 register16Dest $end
$var wire 1 27 instr_pos_rst $end
$var wire 1 28 instr_pos_clk $end
$var wire 8 29 instr_input $end
$var string 1 2a fsm_state $end
$var wire 1 2b instr_en $end
$var wire 4 2c cycle_num $end
$var string 1 2d readAddrSrcReg $end
$var string 1 2e writeAddrSrcReg $end
$scope module instr $end
$var wire 8 2f input $end
$var wire 1 30 en $end
$var wire 8 31 output $end
$var wire 1 32 pos_rst $end
$var wire 1 33 pos_clk $end
$var wire 8 34 x $end
$upscope $end
$upscope $end
$upscope $end
$enddefinitions $end
#0
$dumpvars
00
01
02
03
b0 4
b0 5
06
07
b0 8
b0 9
sM1/1 a
0b
0c
b0 d
sZERO/0 e
1f
b11111111 10
011
012
013
sI/0 14
sWZ/0 15
sINVALID/12 16
sINVALID/7 17
b0 18
b11111111 19
b0 1a
b11111111 1b
sM1/1 1c
sZERO/0 1d
11e
b11111111 1f
020
021
022
sI/0 23
sWZ/0 24
sINVALID/12 25
sINVALID/7 26
027
028
b11111111 29
sRESET/0 2a
02b
b0 2c
sWZ/0 2d
sWZ/0 2e
b11111111 2f
030
b0 31
032
033
b0 34
035
036
037
sI/0 38
sWZ/0 39
sINVALID/12 3a
sINVALID/7 3b
b0 3c
b11111111 3d
b0 3e
b0 3f
040
041
042
b0 43
b0 44
b0 45
b0 46
b0 47
b0 48
b0 49
b0 4a
b0 4b
b0 4c
b0 4d
b0 4e
b0 4f
b0 50
b0 51
b0 52
b0 53
b0 54
b0 55
b0 56
b0 57
b0 58
b0 59
b0 5a
b0 5b
b0 5c
sM1/1 5d
05e
05f
160
061
062
063
064
b0 65
b0 66
067
068
069
b0 6a
06b
b0 6c
b0 6d
b0 6e
b0 6f
sRESET/0 70
b0 71
072
b0 73
074
175
b0 76
b0 77
078
079
07a
07b
07c
07d
b0 7e
sNONE/0 7f
sM1/1 80
081
082
183
084
085
086
087
b0 88
sZERO/0 89
b0 8a
$end
#5
12
141
133
128
182
163
#6
sM1_T1/1 2a
12b
130
b1 6f
sM1_1/8 70
sNONE/0 1c
sPC/5 24
b11111111 31
b1 73
075
17a
sM1/1 7f
sNONE/0 80
sNONE/0 5d
sNONE/0 a
sPC/5 39
sPC/5 15
#10
02
041
033
028
082
063
#15
12
141
133
128
182
163
#16
sM1_T2/2 2a
b11111111 34
sM1_2/13 70
sINC/1 1d
sPC/5 26
161
b10 73
178
sINC/1 e
sINC/1 89
sPC/5 3b
sPC/5 17
b1110 1b
b1110 10
b1110 1f
b1110 19
b1110 3d
b1 8a
b1 3c
b1 18
b1110 29
b1110 2f
b1110 31
#20
02
041
033
028
082
063
#25
12
141
133
128
182
163
#26
sM1_T3/3 2a
02b
030
b1110 34
b1 59
b10 6f
sM1_3/14 70
sZERO/0 1d
sINVALID/7 24
sINVALID/7 26
b1 3e
061
b11 73
078
07a
sZERO/0 e
sZERO/0 89
sINVALID/7 39
sINVALID/7 15
sINVALID/7 3b
sINVALID/7 17
b1 1a
b11111111 1b
b1 8
b1 5b
b1 9
b1 5c
b1 88
b1 d
b11111111 10
b11111111 1f
b11111111 19
b11111111 3d
b1111111111111111 1a
b0 3e
b0 8a
b1111111111111111 8
b1111111111111111 5b
b1111111111111111 9
b1111111111111111 5c
b1111111111111111 88
b1111111111111111 d
b0 3c
b0 18
b11111111 29
b11111111 2f
b1 76
b1 8a
b1 3c
b1 18
b1111111111111111 76
b1111111111111111 8a
b1111111111111111 3c
b1111111111111111 18
#30
02
041
033
028
082
063
#35
12
141
133
128
182
163
#36
sM1_T4/4 2a
b11 6f
sM1_4/15 70
sMEMRD/2 1c
b100 73
178
sMEMRD/2 5d
sMEMRD/2 a
sMEMRD/2 80
#40
02
041
033
028
082
063
#45
12
141
133
128
182
163
#46
sRDOPERAND_T1/8 2a
b1 2c
b100 6f
sMEMRD_1/9 70
sNONE/0 1c
sPC/5 24
b1 73
078
sMEMRD/2 7f
sNONE/0 80
sNONE/0 5d
sNONE/0 a
sPC/5 39
sPC/5 15
b0 1a
b1 3e
b0 8
b0 5b
b0 9
b0 5c
b0 88
b0 d
b1 1a
b1 8
b1 5b
b1 9
b1 5c
b1 88
b1 d
b0 76
b0 8a
b0 3c
b0 18
b1 76
b1 8a
b1 3c
b1 18
#50
02
041
033
028
082
063
#55
12
141
133
128
182
163
#56
sRDOPERAND_T2/10 2a
b1 6f
sMEMRD_2/16 70
b10 73
#60
02
041
033
028
082
063
#65
12
141
133
128
182
163
#66
sRDOPERAND_T3/11 2a
b10 6f
sMEMRD_3/17 70
sM1/1 1c
sINC/1 1d
sC/5 25
sPC/5 26
161
b11 73
178
sM1/1 5d
sM1/1 a
sINC/1 e
sINC/1 89
sC/5 16
sC/5 3a
sPC/5 3b
sPC/5 17
b10101011 1b
b10101011 10
b10101011 1f
b10101011 19
b10101011 3d
sM1/1 80
b10 8a
b10 3c
b10 18
b10101011 29
b10101011 2f
#70
02
041
033
028
082
063
#75
12
141
133
128
182
163
#76
sM1_T1/1 2a
12b
130
b0 2c
b10101011 49
b10 59
b11 6f
sM1_1/8 70
sNONE/0 1c
sZERO/0 1d
sINVALID/12 25
sINVALID/7 26
b10101011 31
b10 3e
061
b1 73
078
17a
sM1/1 7f
sNONE/0 80
sNONE/0 5d
sNONE/0 a
sZERO/0 e
sZERO/0 89
sINVALID/12 16
sINVALID/12 3a
sINVALID/7 3b
sINVALID/7 17
b10 1a
b11111111 1b
b10 8
b10 5b
b10 9
b10 5c
b10 88
b10 d
b11111111 10
b11111111 1f
b11111111 19
b11111111 3d
b1 8a
b1 3c
b1 18
b11111111 29
b11111111 2f
b10 76
b10 8a
b10 3c
b10 18
b11111111 31
#80
02
041
033
028
082
063
#85
12
141
133
128
182
163
#86
sM1_T2/2 2a
b11111111 34
b1 6f
sM1_2/13 70
sINC/1 1d
sPC/5 26
161
b10 73
178
sINC/1 e
sINC/1 89
sPC/5 3b
sPC/5 17
b0 1b
b0 10
b0 1f
b0 19
b0 3d
b11 8a
b11 3c
b11 18
b0 29
b0 2f
b0 31
#90
02
041
033
028
082
063
#95
12
141
133
128
182
163
#96
sM1_T3/3 2a
02b
030
b0 34
b11 59
b10 6f
sM1_3/14 70
sZERO/0 1d
sINVALID/7 24
sINVALID/7 26
b11 3e
061
b11 73
078
07a
sZERO/0 e
sZERO/0 89
sINVALID/7 39
sINVALID/7 15
sINVALID/7 3b
sINVALID/7 17
b11 1a
b11111111 1b
b11 8
b11 5b
b11 9
b11 5c
b11 88
b11 d
b11111111 10
b11111111 1f
b11111111 19
b11111111 3d
b1111111111111111 1a
b0 3e
b10 8a
b1111111111111111 8
b1111111111111111 5b
b1111111111111111 9
b1111111111111111 5c
b1111111111111111 88
b1111111111111111 d
b10 3c
b10 18
b11111111 29
b11111111 2f
b11 76
b11 8a
b11 3c
b11 18
b1111111111111111 76
b1111111111111111 8a
b1111111111111111 3c
b1111111111111111 18
#100
02
041
033
028
082
063
#105
12
141
133
128
182
163
sM1_T4/4 2a
b11 6f
sM1_4/15 70
sM1/1 1c
b100 73
178
sM1/1 5d
sM1/1 a
sM1/1 80
#109
02
041
033
028
082
063
#114
12
141
133
128
182
163
#115
sM1_T1/1 2a
12b
130
b100 6f
sM1_1/8 70
sNONE/0 1c
sPC/5 24
b11111111 31
b1 73
078
17a
sNONE/0 80
sNONE/0 5d
sNONE/0 a
sPC/5 39
sPC/5 15
b0 1a
b11 3e
b0 8
b0 5b
b0 9
b0 5c
b0 88
b0 d
b11 1a
b11 8
b11 5b
b11 9
b11 5c
b11 88
b11 d
b0 76
b0 8a
b0 3c
b0 18
b11 76
b11 8a
b11 3c
b11 18
#119
02
041
033
028
082
063
#124
12
141
133
128
182
163
#125
sM1_T2/2 2a
b11111111 34
b1 6f
sM1_2/13 70
sINC/1 1d
sPC/5 26
161
b10 73
178
sINC/1 e
sINC/1 89
sPC/5 3b
sPC/5 17
b0 1b
b0 10
b0 1f
b0 19
b0 3d
b100 8a
b100 3c
b100 18
b0 29
b0 2f
b0 31
#129
02
041
033
028
082
063
#134
12
141
133
128
182
163
#135
sM1_T3/3 2a
02b
030
b0 34
b100 59
b10 6f
sM1_3/14 70
sZERO/0 1d
sINVALID/7 24
sINVALID/7 26
b100 3e
061
b11 73
078
07a
sZERO/0 e
sZERO/0 89
sINVALID/7 39
sINVALID/7 15
sINVALID/7 3b
sINVALID/7 17
b100 1a
b11111111 1b
b100 8
b100 5b
b100 9
b100 5c
b100 88
b100 d
b11111111 10
b11111111 1f
b11111111 19
b11111111 3d
b1111111111111111 1a
b0 3e
b11 8a
b1111111111111111 8
b1111111111111111 5b
b1111111111111111 9
b1111111111111111 5c
b1111111111111111 88
b1111111111111111 d
b11 3c
b11 18
b11111111 29
b11111111 2f
b100 76
b100 8a
b100 3c
b100 18
b1111111111111111 76
b1111111111111111 8a
b1111111111111111 3c
b1111111111111111 18
#139
02
041
033
028
082
063
#144
12
141
133
128
182
163
#145
sM1_T4/4 2a
b11 6f
sM1_4/15 70
sM1/1 1c
b100 73
178
sM1/1 5d
sM1/1 a
sM1/1 80
